[
  {
    "model": "settings.setting",
    "pk": 1,
    "fields": {
      "name": "source_language",
      "default_value": "en"
    }
  },
  {
    "model": "settings.setting",
    "pk": 2,
    "fields": {
      "name": "target_language",
      "default_value": "ru"
    }
  },
  {
    "model": "settings.setting",
    "pk": 3,
    "fields": {
      "name": "auto_pronunciation",
      "default_value": "true"
    }
  }
]